{
  "version": "2.1",
  "services": {
    "api": {
      "build": ".",
      "ports": [
        "8080:8080"
      ],
      "environment": [
        "DEBUG=$DEBUG"
      ],
      "command": "start api"
    }
  }
}
